8.909987
16.192998
16.020819
12.633680
16.959854
17.139156
15.164489
12.097905
19.604761
15.067576
20.424554
14.017501
15.978689
13.321265
19.124597
14.495124
18.755200
16.042813
10.489033
14.843023
13.697305
13.857952
11.001538
17.892000
16.031881
11.861920
11.118315
14.734604
15.732781
15.505048
16.563113
15.592482
15.305432
16.901546
14.466466
12.001334
18.434494
15.916142
15.405638
13.342971
11.917056
19.260947
15.435340
14.389063
13.758889
13.490960
15.101173
10.901467
15.234612
14.781385
17.653671
13.500082
18.931379
16.989811
15.430164
13.022543
19.727647
17.758645
13.412557
14.808255
10.757510
8.781695
19.119918
11.761151
14.212262
15.638624
19.124578
14.383037
13.362805
18.318350
18.960362
12.994276
15.808020
11.914635
14.194982
19.636197
12.027207
9.745428
19.163158
17.626723
24.567560
14.699877
17.808838
11.590707
10.472552
16.972242
15.872121
18.799847
15.729037
12.998536
14.248673
16.833958
15.198744
11.539618
15.093324
21.190694
15.051172
12.748368
10.961455
18.902643
15.212425
15.855732
10.744539
13.059018
12.653966
13.508684
17.800067
16.136813
13.437922
14.802302
13.454282
12.221520
10.371517
8.917270
8.967918
16.942945
8.446655
13.909449
18.701303
21.306606
13.121786
16.593835
14.926487
9.978594
14.917915
15.092026
11.790285
14.909007
17.402108
17.875962
15.718619
15.983647
9.101684
17.071662
12.425566
16.811391
14.786696
14.103873
16.701569
15.732433
16.435214
14.306143
10.343095
14.665172
14.018652
13.641945
13.830718
16.442431
17.343789
18.660491
17.684657
13.785665
14.214072
15.749298
15.028118
18.231247
17.116494
17.090587
17.677251
15.797559
19.833864
15.507708
16.202643
13.924425
15.158283
12.927073
12.503832
15.096947
15.137525
12.750627
12.204635
12.020651
17.591885
17.106884
24.088416
13.832580
16.127510
17.816269
18.789934
13.435441
19.886848
16.801440
17.183277
12.389104
13.042791
13.454258
17.805648
15.460543
15.562454
13.195805
15.902949
15.249722
8.095362
18.506686
13.554645
16.744566
12.791436
17.019228
15.824333
13.093622
12.547712
14.713668
20.285414
20.371843
17.200430
12.488017
17.502159
17.512790
16.045735
17.593878
13.777732
15.169820
16.135128
16.029733
14.098317
14.517860
11.014828
18.794818
16.486160
14.435480
14.775719
17.822112
17.346208
13.589750
6.290552
20.503728
13.428850
15.102754
23.230627
15.247055
10.134059
14.030352
14.715529
14.268156
16.740363
15.184792
12.178362
11.126210
10.963414
17.860302
19.067970
14.562419
17.522533
13.506608
15.974083
13.786421
15.306624
12.759798
14.933969
17.805028
16.783066
13.577650
18.404515
17.818553
19.602903
15.434744
11.581539
8.386391
13.672467
17.576855
16.249020
19.712844
19.624176
19.297334
15.992041
18.991298
13.713748
16.352651
19.408104
13.983567
12.994874
8.036219
13.092485
10.312256
12.614334
14.502223
14.707254
13.953677
15.239351
14.306622
13.526762
13.352199
17.077732
16.003861
18.559475
19.221335
15.811696
14.480708
10.392570
14.254847
16.419041
13.489000
14.835705
16.515061
10.885902
10.615596
16.000853
13.475512
11.713301
17.679397
16.641311
12.915836
18.945925
7.767585
16.563780
18.427059
17.125640
11.344721
11.019308
14.458997
11.841526
19.550065
13.016747
12.626336
19.790835
13.360897
12.238404
14.936977
13.741948
16.347371
16.704717
15.204668
16.643155
13.249273
11.119189
7.133814
10.841713
11.598262
10.492087
13.524412
16.754815
8.754062
16.264097
16.668503
14.029162
16.040649
7.886553
9.705679
13.161804
16.397061
10.759623
16.727402
14.523565
14.708708
11.640037
15.201550
16.338560
17.155666
15.093883
18.031978
15.922408
16.216671
13.562080
18.360857
15.429749
12.851841
17.919994
20.408806
13.229573
16.177155
17.996422
20.280639
21.203045
11.666628
18.464074
13.762093
15.034814
9.822171
14.753543
12.467645
13.022419
12.612633
20.887480
11.856022
16.947603
16.273417
12.404311
12.952537
15.415582
16.768285
21.378568
14.864749
15.824164
12.697290
10.113254
14.228778
14.096909
16.736359
13.052185
21.767490
15.982702
17.564669
13.683744
6.990766
20.031470
11.153271
15.454003
15.286789
14.306113
21.574916
16.830473
19.509524
18.069097
14.591940
17.917444
9.639435
10.978280
9.149860
16.382352
7.881086
15.881840
16.994795
12.735812
12.172492
12.357154
9.643071
18.115851
13.905189
12.010807
17.575496
9.768678
14.066592
12.378954
12.109435
15.421211
14.665103
13.598617
15.686997
18.328574
13.957037
19.123171
11.928401
13.007698
8.920822
17.525044
16.851728
12.014982
8.720026
13.303574
16.302588
15.536595
21.191588
10.506842
12.426534
16.740950
14.273246
18.328662
14.980580
10.532076
18.558982
16.118429
13.096846
14.070802
15.078490
20.127350
23.104948
13.358395
8.377161
14.712798
10.513908
15.502460
11.436670
18.017911
16.689942
16.739330
11.303641
18.509944
11.130251
11.981621
10.032338
12.581054
18.025229
16.543839
15.807000
18.248461
14.335810
21.326786
11.618785
14.832355
12.787552
15.210405
11.561709
14.830784
17.121528
13.493151
10.161259
16.590409
13.552872
10.794990
17.646901
15.087881
14.431906
14.531773
19.918098
16.001429
16.550921
14.021244
17.221431
8.836534
11.231063
15.015281
14.977551
18.375756
11.679633
16.016746
18.755134
15.160703
17.966315
16.037642
21.718267
16.002279
14.656513
17.152039
10.944798
17.710359
12.263389
19.516971
8.735939
17.932538
16.439952
9.659257
13.700929
19.161218
14.325197
17.134482
12.019628
11.438692
15.147270
12.135532
10.998111
18.911060
15.732768
21.461187
11.537222
13.041034
18.219053
18.973076
15.062558
17.292698
15.104758
12.704745
15.300636
15.437352
14.328547
21.698963
14.637326
18.677479
13.548827
13.049967
14.945058
22.462014
15.103256
21.891736
9.056422
17.320289
17.114857
13.036127
17.153894
14.447220
12.198449
17.419570
15.080220
12.954464
14.716548
13.683102
16.164868
14.959132
19.725993
17.436923
16.947110
15.268176
11.427136
16.200074
11.754172
14.558748
10.326804
16.534848
14.333971
17.709603
15.792377
18.800062
15.285906
10.287853
16.101062
19.370272
16.695804
13.130315
20.777828
15.852533
13.223731
26.033836
15.366379
15.440212
16.753640
15.645067
16.394258
15.986765
17.296462
15.483648
18.054421
18.917154
10.436571
9.163085
14.402739
11.312705
16.569092
10.836479
21.100433
17.930590
14.524485
20.378853
18.011508
18.468413
15.978165
18.365290
15.765247
18.814561
12.953073
15.440707
19.763551
12.638206
18.820470
19.689841
17.333697
13.047609
19.386313
14.068609
14.419249
15.282376
10.451103
17.436127
13.814954
14.548232
16.745663
12.426819
16.607658
16.963343
17.847712
12.741879
20.034922
9.012637
12.193851
13.878235
10.422758
16.112082
14.034011
12.674209
18.392018
12.290596
11.630663
17.239451
19.212181
12.407950
13.284768
19.293393
17.553077
14.364141
8.447553
14.869937
16.300937
16.838013
19.236166
17.871719
13.872985
12.519568
17.584530
13.712465
19.800851
8.338519
15.411868
20.164159
18.261257
21.764534
12.013214
17.784833
13.918816
20.958008
10.580477
10.314712
14.954893
12.693471
15.974397
18.584863
14.733794
9.606999
14.326485
11.180467
13.784695
17.974276
11.510307
13.468009
15.320268
21.365815
15.785864
7.856289
10.193303
19.661671
16.363518
19.455059
13.434169
6.795164
13.958558
11.858163
15.146309
11.237841
9.420821
13.003596
15.689257
17.867244
10.939413
15.439395
14.282783
14.733093
16.358430
18.870045
11.818697
13.399246
17.781928
17.518881
16.911614
20.811648
10.253484
21.092820
14.078429
17.081033
14.740752
18.035046
18.841535
16.870790
11.415251
16.236442
13.839247
6.267112
8.005466
13.773152
14.677667
18.156406
8.915383
16.436512
18.459622
13.326845
12.203100
18.325521
16.701160
12.178811
14.615254
20.602037
12.956485
12.196495
15.853810
15.839553
12.365290
8.395543
15.638125
11.635046
14.877096
13.432423
16.248842
13.925199
12.331596
15.613309
16.202499
14.877833
12.093262
15.954172
19.727618
15.774490
13.482831
16.060818
11.698716
15.867486
14.070880
15.415365
13.211577
17.207989
17.796522
17.970819
13.837302
8.653587
18.263129
16.293361
17.745824
14.188339
8.638933
13.375251
17.907396
14.092147
13.985590
13.437349
13.797326
11.763476
19.910654
12.506378
14.043779
12.507809
13.934376
13.829819
16.503822
12.331920
19.037894
17.218360
18.350021
17.987218
17.228147
13.808212
18.754565
16.287876
14.937240
16.761510
16.258874
15.563958
19.513327
11.764439
10.276328
18.571220
18.111115
12.296482
16.078038
17.038165
7.904166
18.067160
13.972910
13.273114
15.639895
16.208993
15.380807
16.304100
16.600257
13.020480
12.040626
17.261785
14.279658
14.702426
12.847024
19.345142
17.994280
18.221630
15.820492
13.683577
10.506616
8.552421
17.903923
14.847131
15.453297
7.326945
13.287071
11.590381
12.169687
9.508954
21.318422
15.342364
19.967246
12.137349
17.965218
18.607804
14.852518
16.677171
9.915911
13.913577
13.714875
14.746608
14.254677
17.032794
11.291854
10.111592
16.023374
21.301401
20.171230
16.517731
10.259815
17.881711
13.339753
12.254841
12.656431
22.219255
13.457609
23.713603
18.367446
15.477324
14.102036
17.204361
23.056586
9.837252
11.254690
12.362253
17.859560
15.993359
14.528632
15.326361
22.411176
16.596091
13.075742
17.058553
22.264775
12.882915
14.107370
18.221238
16.751634
10.963212
6.661033
5.914341
18.163576
10.843824
17.587173
15.892482
19.147603
13.941120
11.437227
15.398013
10.816191
8.535473
15.682430
6.754714
16.450764
14.047187
12.188638
18.251396
13.744325
14.521046
13.387744
12.655873
20.122761
11.803739
14.735176
12.334840
16.603763
17.571618
12.089129
11.634496
16.457547
12.355246
12.470228
17.861085
16.172978
14.634068
12.915959
11.882256
16.593115
18.668055
17.722500
12.882283
14.965898
16.044205
14.689287
19.596644
7.969401
11.770600
15.082112
14.596837
18.486617
16.487790
15.758763
17.850652
16.224470
19.002062
13.491266
9.941374
14.992101
15.612947
7.624379
13.148269
14.150477
10.885455
6.522804
9.932337
13.751328
8.767439
15.362440
18.593212
14.536637
18.680374
15.113808
10.997047
20.499987
14.361113
21.793919
15.526803
24.136491
10.915679
17.748363
13.680949
14.270502
14.832478
10.359106
11.443718
12.627730
16.230107
16.419913
22.763401
12.948765
17.001915
13.038511
10.090450
12.528169
18.127529
9.670521
15.894567
17.574343
17.505043
16.078610
